{
    "$schema": "https://json.schemastore.org/block.json",
    "apiVersion": 2,
    "name": "simple-table-of-contents/block",
    "textdomain": "simple-table-of-contents",
    "title": "Simple table of contents",
    "category": "widgets",
    "icon": "editor-ul",
    "keywords": [
        "table-of-contents",
        "table",
        "toc",
        "headings"
    ],
    "supports": {
        "anchor": true
    },
    "attributes": {
        "headingTags": {
            "type": "object",
            "default": {
                "h1": true,
                "h2": true,
                "h3": true,
                "h4": false,
                "h5": false,
                "h6": false
            }
        },
        "title": {
            "type": "string",
            "default": null
        },
        "titleTag": {
            "type": "string",
            "default": ""
        },
        "openByDefault": {
            "type": "boolean",
            "default": false
        },
        "alwaysOpen": {
            "type": "boolean",
            "default": false
        },
        "width": {
            "type": "string",
            "default": null
        },
        "alignment": {
            "type": "string",
            "default": "left"
        },
        "bordered": {
            "type": "boolean",
            "default": false
        },
        "borderRadius": {
            "type": "string",
            "default": null
        },
        "titleFontColor": {
            "type": "string",
            "default": null
        },
        "titleBgColor": {
            "type": "string",
            "default": null
        },
        "contentFontColor": {
            "type": "string",
            "default": null
        },
        "contentBgColor": {
            "type": "string",
            "default": null
        },
        "anchor": {
            "type": "string",
            "default": null
        }
    },
    "editorScript": "simple-table-of-contents-editor-script",
    "editorStyle": "simple-table-of-contents-editor-style",
    "style": [
        "simple-table-of-contents-style",
        "font-awesome-v6.4.0"
    ],
    "viewScript": "simple-table-of-contents-toggle-script"
}